first_counter_overflow/first_counter_overflow_kgoliya_buggy1/transcript
# //  ModelSim SE-64 2019.2 Apr 17 2019
# //
# //  Copyright 1991-2019 Mentor Graphics Corporation
# //  All Rights Reserved.
# //
# //  ModelSim SE-64 and its associated documentation contain trade
# //  secrets and commercial or financial information that are the property of
# //  Mentor Graphics Corporation and are privileged, confidential,
# //  and exempt from disclosure under the Freedom of Information Act,
# //  5 U.S.C. Section 552. Furthermore, this information
# //  is prohibited from disclosure under the Trade Secrets Act,
# //  18 U.S.C. Section 1905.
# //
# do collectCoverage255s.do
# ** Warning: (vlib-34) Library already exists at "work".
# Model Technology ModelSim SE-64 vmap 2019.2 Lib Mapping Utility 2019.04 Apr 17 2019
# vmap work work 
# Modifying modelsim.ini
# Model Technology ModelSim SE-64 vlog 2019.2 Compiler 2019.04 Apr 17 2019
# Start time: 10:24:53 on May 01,2022
# vlog -reportprogress 300 first_counter_overflow_kgoliya_buggy1.v "+cover=sbcet" -coveropt 1 
# -- Compiling module first_counter
# 
# Top level modules:
# 	first_counter
# End time: 10:24:53 on May 01,2022, Elapsed time: 0:00:00
# Errors: 0, Warnings: 0
# Model Technology ModelSim SE-64 vlog 2019.2 Compiler 2019.04 Apr 17 2019
# Start time: 10:24:53 on May 01,2022
# vlog -reportprogress 300 first_counter_tb_t3.v "+cover=sbcet" -coveropt 1 
# -- Compiling module first_counter_tb
# 
# Top level modules:
# 	first_counter_tb
# End time: 10:24:53 on May 01,2022, Elapsed time: 0:00:00
# Errors: 0, Warnings: 0
# vsim -coverage first_counter_tb 
# Start time: 10:24:53 on May 01,2022
# ** Note: (vsim-8009) Loading existing optimized design _opt1
# Loading work.first_counter_tb(fast)
# 		time,	clk,	reset,	enable,	count_out,	overflow_out
# 
#                    0, 	0, 	0, 	0, 	 x, 		x
#                    5, 	1, 	0, 	0, 	 x, 		x
#                   10, 	0, 	0, 	0, 	 x, 		x
#                   15, 	1, 	0, 	0, 	 x, 		x
#                   20, 	0, 	1, 	0, 	 x, 		x
#                   25, 	1, 	1, 	0, 	 x, 		x
#                   26, 	1, 	1, 	0, 	 x, 		0
#                   30, 	0, 	0, 	0, 	 x, 		0
#                   35, 	1, 	0, 	0, 	 x, 		0
#                   40, 	0, 	0, 	1, 	 x, 		0
#                   45, 	1, 	0, 	1, 	 x, 		0
#                   50, 	0, 	0, 	1, 	 x, 		0
#                   55, 	1, 	0, 	1, 	 x, 		0
#                   60, 	0, 	0, 	1, 	 x, 		0
#                   65, 	1, 	0, 	1, 	 x, 		0
#                   70, 	0, 	0, 	1, 	 x, 		0
#                   75, 	1, 	0, 	1, 	 x, 		0
#                   80, 	0, 	0, 	1, 	 x, 		0
#                   85, 	1, 	0, 	1, 	 x, 		0
#                   90, 	0, 	0, 	1, 	 x, 		0
#                   95, 	1, 	0, 	1, 	 x, 		0
#                  100, 	0, 	0, 	1, 	 x, 		0
#                  105, 	1, 	0, 	1, 	 x, 		0
#                  110, 	0, 	0, 	1, 	 x, 		0
#                  115, 	1, 	0, 	1, 	 x, 		0
#                  120, 	0, 	0, 	1, 	 x, 		0
#                  125, 	1, 	0, 	1, 	 x, 		0
#                  130, 	0, 	0, 	1, 	 x, 		0
#                  135, 	1, 	0, 	1, 	 x, 		0
#                  140, 	0, 	0, 	1, 	 x, 		0
#                  145, 	1, 	0, 	1, 	 x, 		0
#                  150, 	0, 	0, 	1, 	 x, 		0
#                  155, 	1, 	0, 	1, 	 x, 		0
#                  160, 	0, 	0, 	1, 	 x, 		0
#                  165, 	1, 	0, 	1, 	 x, 		0
#                  170, 	0, 	0, 	1, 	 x, 		0
#                  175, 	1, 	0, 	1, 	 x, 		0
#                  180, 	0, 	0, 	1, 	 x, 		0
#                  185, 	1, 	0, 	1, 	 x, 		0
#                  190, 	0, 	0, 	1, 	 x, 		0
#                  195, 	1, 	0, 	1, 	 x, 		0
#                  200, 	0, 	0, 	1, 	 x, 		0
#                  205, 	1, 	0, 	1, 	 x, 		0
#                  210, 	0, 	0, 	1, 	 x, 		0
#                  215, 	1, 	0, 	1, 	 x, 		0
#                  220, 	0, 	0, 	1, 	 x, 		0
#                  225, 	1, 	0, 	1, 	 x, 		0
#                  230, 	0, 	0, 	1, 	 x, 		0
#                  235, 	1, 	0, 	1, 	 x, 		0
#                  240, 	0, 	0, 	1, 	 x, 		0
#                  245, 	1, 	0, 	1, 	 x, 		0
#                  250, 	0, 	0, 	1, 	 x, 		0
# End time: 10:24:58 on May 01,2022, Elapsed time: 0:00:05
# Errors: 0, Warnings: 0
